Using the WERP toolkit - Scaling functions
…
We need to deal with duplicate ranks. The most common will be zeros in the hydrograph, but they could occur in the modelled data too.

sum(duplicated(test_hydro$hydrank))

[1] 14473

sum(duplicated(test_model$histrank))

[1] 178

The modelled data is not duplicated on 0, necessarily

test_model %>% group_by(histrank) %>% summarise(nr = n(), val = first(SimR0)) %>% filter(nr > 1)

# A tibble: 177 × 3
   histrank    nr     val
      <dbl> <int>   <dbl>
 1     380.     2 0.00394
 2     394.     2 0.00395
 3    1534.     2 0.00512
 4    1546.     2 0.00514
 5    1608.     2 0.00519
 6    2130.     2 0.00567
 7    2240.     2 0.00577
 8    2362.     2 0.00588
 9    3106.     2 0.00649
10    3118.     2 0.00649
# … with 167 more rows

The hydrographs are usually 0 duplication, but not always

test_hydro %>% group_by(hydrank) %>% summarise(nr = n(), val = first(hyd_vals)) %>% filter(nr > 1)

# A tibble: 2,574 × 3
   hydrank    nr   val
     <dbl> <int> <dbl>
 1   1410.  2820 0    
 2   2824.     6 0.001
 3   2830.     6 0.002
 4   2834.     2 0.004
 5   2838      5 0.011
 6   2848.     2 0.33 
 7   2852      3 0.799
 8   2856.     2 1.18 
 9   2862.     4 1.37 
10   2868.     2 1.67 
# … with 2,564 more rows
…
