Using the WERP toolkit - Scaling functions
…
`summarise()` has grouped output by 'Month'. You can override using the
`.groups` argument.

test_q

# A tibble: 600 × 18
# Groups:   Month [12]
   Month quant…¹ SimR0…² SimR1…³ SimR2…⁴ SimR3…⁵ SimR4…⁶ SimR5…⁷ SimR6…⁸ SimR7…⁹
   <dbl>   <int>   <dbl>   <dbl>   <dbl>   <dbl>   <dbl>   <dbl>   <dbl>   <dbl>
 1     1       1 0.00434 0.00273 0.00308 0.00342 0.00376 0.00408 0.00439 0.00468
 2     1       2 0.00500 0.00306 0.00346 0.00386 0.00426 0.00466 0.00507 0.00548
 3     1       3 0.00563 0.00327 0.00375 0.00423 0.00473 0.00521 0.00573 0.00629
 4     1       4 0.00619 0.00350 0.00404 0.00459 0.00514 0.00571 0.00626 0.00683
 5     1       5 0.00655 0.00384 0.00435 0.00491 0.00544 0.00601 0.00660 0.00721
 6     1       6 0.00690 0.00412 0.00462 0.00517 0.00576 0.00633 0.00697 0.00766
 7     1       7 0.00735 0.00434 0.00488 0.00546 0.00610 0.00674 0.00745 0.00822
 8     1       8 0.00787 0.00457 0.00515 0.00574 0.00646 0.00724 0.00797 0.00875
 9     1       9 0.00841 0.00482 0.00543 0.00610 0.00687 0.00768 0.00850 0.00930
10     1      10 0.00890 0.00506 0.00573 0.00649 0.00727 0.00812 0.00901 0.00992
# … with 590 more rows, 8 more variables: SimR0_mean_cr <dbl>,
#   SimR1_mean_cr <dbl>, SimR2_mean_cr <dbl>, SimR3_mean_cr <dbl>,
#   SimR4_mean_cr <dbl>, SimR5_mean_cr <dbl>, SimR6_mean_cr <dbl>,
#   SimR7_mean_cr <dbl>, and abbreviated variable names ¹​quantile, ²​SimR0_mean,
#   ³​SimR1_mean, ⁴​SimR2_mean, ⁵​SimR3_mean, ⁶​SimR4_mean, ⁷​SimR5_mean,
#   ⁸​SimR6_mean, ⁹​SimR7_mean
…
Are the values the same? e.g. can we just dump the dups?

dups <- re_dup %>%
  dplyr::group_by(time) %>%
  dplyr::filter(n() > 1) %>%
  mutate(dupnum = row_number()) %>% 
  dplyr::arrange(time) # makes the comparisons easier

Quite clearly not the same.

dups <- dups %>% 
  select(site, value, time, site_short_name, variable, dupnum, quality_codes, quality_codes_id)
dups

# A tibble: 10,410 × 8
# Groups:   time [5,205]
   site   value time                site_short_…¹ varia…² dupnum quali…³ quali…⁴
   <chr>  <dbl> <dttm>              <chr>         <chr>    <int> <chr>     <int>
 1 412036 1011. 1990-01-01 09:00:00 LACHLAN JEMA… 141.00       1 Not qu…     130
 2 412036 1061. 1990-01-01 09:00:00 LACHLAN JEMA… 141.00       2 Not qu…     130
 3 412036 1005. 1990-01-02 09:00:00 LACHLAN JEMA… 141.00       1 Not qu…     130
 4 412036 1056. 1990-01-02 09:00:00 LACHLAN JEMA… 141.00       2 Not qu…     130
 5 412036  899. 1990-01-03 09:00:00 LACHLAN JEMA… 141.00       1 Not qu…     130
 6 412036  953. 1990-01-03 09:00:00 LACHLAN JEMA… 141.00       2 Not qu…     130
 7 412036  796. 1990-01-04 09:00:00 LACHLAN JEMA… 141.00       1 Not qu…     130
 8 412036  842. 1990-01-04 09:00:00 LACHLAN JEMA… 141.00       2 Not qu…     130
 9 412036  692. 1990-01-05 09:00:00 LACHLAN JEMA… 141.00       1 Not qu…     130
10 412036  731. 1990-01-05 09:00:00 LACHLAN JEMA… 141.00       2 Not qu…     130
# … with 10,400 more rows, and abbreviated variable names ¹​site_short_name,
#   ²​variable, ³​quality_codes, ⁴​quality_codes_id
…
