Using the WERP toolkit - Aggregation syntax
…
Linking to GEOS 3.9.3, GDAL 3.5.2, PROJ 8.2.1; sf_use_s2() is TRUE

Joining, by = "gauge"
Joining, by = c("gauge", "ewr_code", "ewr_code_timing", "PlanningUnitID")
Joining, by = "gauge"
Joining, by = c("gauge", "ewr_code", "PlanningUnitID")

simpleThemeAgg

Simple feature collection with 3444 features and 5 fields
Geometry type: POINT
Dimension:     XY
Bounding box:  xmin: 144.8811 ymin: -33.86951 xmax: 151.1435 ymax: -29.92117
Geodetic CRS:  GDA94
# A tibble: 3,444 × 6
   scenario gauge  polyID      env_obj env_obj_Arith…¹             geometry
   <chr>    <chr>  <chr>       <chr>             <dbl>          <POINT [°]>
 1 base     412002 r3cxx2uk3v7 EF1               0.714 (148.6839 -33.83301)
 2 base     412002 r3cxx2uk3v7 EF2               0.417 (148.6839 -33.83301)
 3 base     412002 r3cxx2uk3v7 EF3               0     (148.6839 -33.83301)
 4 base     412002 r3cxx2uk3v7 EF3a              0.667 (148.6839 -33.83301)
 5 base     412002 r3cxx2uk3v7 EF4               0     (148.6839 -33.83301)
 6 base     412002 r3cxx2uk3v7 EF5               0.25  (148.6839 -33.83301)
 7 base     412002 r3cxx2uk3v7 EF6               0     (148.6839 -33.83301)
 8 base     412002 r3cxx2uk3v7 EF7               0     (148.6839 -33.83301)
 9 base     412002 r3cxx2uk3v7 NF1               0.556 (148.6839 -33.83301)
10 base     412002 r3cxx2uk3v7 NF2               0.667 (148.6839 -33.83301)
# … with 3,434 more rows, and abbreviated variable name
#   ¹​env_obj_ArithmeticMean_ewr_code_CompensatingFactor_ewr_achieved
…
obj2poly2 <- spatial_aggregate(dat = simpleThemeAgg, 
                             to_geo = sdl_units,
                             groupers = c(starts_with('sce'), env_obj),
                             aggCols = "env_obj_ArithmeticMean_ewr_code_CompensatingFactor_ewr_achieved",
                             funlist = ArithmeticMean,
                             keepAllPolys = TRUE)

obj2poly2

Simple feature collection with 3939 features and 7 fields
Geometry type: MULTIPOLYGON
Dimension:     XY
Bounding box:  xmin: 138.5685 ymin: -37.68199 xmax: 152.4821 ymax: -24.5893
Geodetic CRS:  GDA94
# A tibble: 3,939 × 8
   scenario env_obj polyID      spatial_ArithmeticMean…¹ SWSDLID SWSDL…² StateID
 * <chr>    <chr>   <chr>                          <dbl> <chr>   <chr>   <chr>  
 1 base     EF1     r602ydft049                   0.571  SS16    Lachlan NSW    
 2 base     EF1     r6367k2uy6m                   0.217  SS20    Macqua… NSW    
 3 base     EF1     r6d2dwp48wm                   0.238  SS21    Namoi   NSW    
 4 base     EF2     r602ydft049                   0.416  SS16    Lachlan NSW    
 5 base     EF2     r6367k2uy6m                   0.219  SS20    Macqua… NSW    
 6 base     EF2     r6d2dwp48wm                   0.227  SS21    Namoi   NSW    
 7 base     EF3     r602ydft049                   0.0417 SS16    Lachlan NSW    
 8 base     EF3     r6367k2uy6m                   0.128  SS20    Macqua… NSW    
 9 base     EF3     r6d2dwp48wm                   0.182  SS21    Namoi   NSW    
10 base     EF3a    r602ydft049                   0.506  SS16    Lachlan NSW    
# … with 3,929 more rows, 1 more variable: geometry <MULTIPOLYGON [°]>, and
#   abbreviated variable names
#   ¹​spatial_ArithmeticMean_env_obj_ArithmeticMean_ewr_code_CompensatingFactor_ewr_achieved,
#   ²​SWSDLName
…
obj2polyF <- spatial_aggregate(dat = simpleThemeAgg, 
                             to_geo = sdl_units,
                             groupers = c('scenario', 'env_obj', 'extra_grouper'),
                             aggCols = ends_with('ewr_achieved'),
                             funlist = ArithmeticMean,
                             keepAllPolys = TRUE,
                             failmissing = FALSE)
obj2polyF

Simple feature collection with 3939 features and 7 fields
Geometry type: MULTIPOLYGON
Dimension:     XY
Bounding box:  xmin: 138.5685 ymin: -37.68199 xmax: 152.4821 ymax: -24.5893
Geodetic CRS:  GDA94
# A tibble: 3,939 × 8
   scenario env_obj polyID      spatial_ArithmeticMean…¹ SWSDLID SWSDL…² StateID
 * <chr>    <chr>   <chr>                          <dbl> <chr>   <chr>   <chr>  
 1 base     EF1     r602ydft049                   0.571  SS16    Lachlan NSW    
 2 base     EF1     r6367k2uy6m                   0.217  SS20    Macqua… NSW    
 3 base     EF1     r6d2dwp48wm                   0.238  SS21    Namoi   NSW    
 4 base     EF2     r602ydft049                   0.416  SS16    Lachlan NSW    
 5 base     EF2     r6367k2uy6m                   0.219  SS20    Macqua… NSW    
 6 base     EF2     r6d2dwp48wm                   0.227  SS21    Namoi   NSW    
 7 base     EF3     r602ydft049                   0.0417 SS16    Lachlan NSW    
 8 base     EF3     r6367k2uy6m                   0.128  SS20    Macqua… NSW    
 9 base     EF3     r6d2dwp48wm                   0.182  SS21    Namoi   NSW    
10 base     EF3a    r602ydft049                   0.506  SS16    Lachlan NSW    
# … with 3,929 more rows, 1 more variable: geometry <MULTIPOLYGON [°]>, and
#   abbreviated variable names
#   ¹​spatial_ArithmeticMean_env_obj_ArithmeticMean_ewr_code_CompensatingFactor_ewr_achieved,
#   ²​SWSDLName
…
doublesimplechar <- spatial_aggregate(dat = simpleThemeAgg, 
                             to_geo = sdl_units,
                             groupers = c('scenario', 'env_obj'),
                             aggCols = 'ewr_achieved',
                             funlist = 'ArithmeticMean',
                             keepAllPolys = TRUE,
                             failmissing = FALSE)
doublesimplechar

Simple feature collection with 3939 features and 6 fields
Geometry type: MULTIPOLYGON
Dimension:     XY
Bounding box:  xmin: 138.5685 ymin: -37.68199 xmax: 152.4821 ymax: -24.5893
Geodetic CRS:  GDA94
# A tibble: 3,939 × 7
   scenario env_obj polyID     SWSDLID SWSDL…¹ StateID                  geometry
 * <chr>    <chr>   <chr>      <chr>   <chr>   <chr>          <MULTIPOLYGON [°]>
 1 base     EF1     r602ydft0… SS16    Lachlan NSW     (((146.4428 -32.33613, 1…
 2 base     EF1     r6367k2uy… SS20    Macqua… NSW     (((147.4064 -30.14296, 1…
 3 base     EF1     r6d2dwp48… SS21    Namoi   NSW     (((148.3669 -29.78047, 1…
 4 base     EF2     r602ydft0… SS16    Lachlan NSW     (((146.4428 -32.33613, 1…
 5 base     EF2     r6367k2uy… SS20    Macqua… NSW     (((147.4064 -30.14296, 1…
 6 base     EF2     r6d2dwp48… SS21    Namoi   NSW     (((148.3669 -29.78047, 1…
 7 base     EF3     r602ydft0… SS16    Lachlan NSW     (((146.4428 -32.33613, 1…
 8 base     EF3     r6367k2uy… SS20    Macqua… NSW     (((147.4064 -30.14296, 1…
 9 base     EF3     r6d2dwp48… SS21    Namoi   NSW     (((148.3669 -29.78047, 1…
10 base     EF3a    r602ydft0… SS16    Lachlan NSW     (((146.4428 -32.33613, 1…
# … with 3,929 more rows, and abbreviated variable name ¹​SWSDLName
…
doublesimplec <- spatial_aggregate(dat = simpleThemeAgg, 
                             to_geo = sdl_units,
                             groupers = c('scenario', 'env_obj'),
                             aggCols = 'ewr_achieved',
                             funlist = simplefuns,
                             keepAllPolys = TRUE,
                             failmissing = FALSE)
doublesimplec

Simple feature collection with 3939 features and 6 fields
Geometry type: MULTIPOLYGON
Dimension:     XY
Bounding box:  xmin: 138.5685 ymin: -37.68199 xmax: 152.4821 ymax: -24.5893
Geodetic CRS:  GDA94
# A tibble: 3,939 × 7
   scenario env_obj polyID     SWSDLID SWSDL…¹ StateID                  geometry
 * <chr>    <chr>   <chr>      <chr>   <chr>   <chr>          <MULTIPOLYGON [°]>
 1 base     EF1     r602ydft0… SS16    Lachlan NSW     (((146.4428 -32.33613, 1…
 2 base     EF1     r6367k2uy… SS20    Macqua… NSW     (((147.4064 -30.14296, 1…
 3 base     EF1     r6d2dwp48… SS21    Namoi   NSW     (((148.3669 -29.78047, 1…
 4 base     EF2     r602ydft0… SS16    Lachlan NSW     (((146.4428 -32.33613, 1…
 5 base     EF2     r6367k2uy… SS20    Macqua… NSW     (((147.4064 -30.14296, 1…
 6 base     EF2     r6d2dwp48… SS21    Namoi   NSW     (((148.3669 -29.78047, 1…
 7 base     EF3     r602ydft0… SS16    Lachlan NSW     (((146.4428 -32.33613, 1…
 8 base     EF3     r6367k2uy… SS20    Macqua… NSW     (((147.4064 -30.14296, 1…
 9 base     EF3     r6d2dwp48… SS21    Namoi   NSW     (((148.3669 -29.78047, 1…
10 base     EF3a    r602ydft0… SS16    Lachlan NSW     (((146.4428 -32.33613, 1…
# … with 3,929 more rows, and abbreviated variable name ¹​SWSDLName
…
Simple feature collection with 87 features and 5 fields
Geometry type: MULTIPOLYGON
Dimension:     XY
Bounding box:  xmin: 138.5685 ymin: -37.68199 xmax: 152.4821 ymax: -24.5893
Geodetic CRS:  GDA94
# A tibble: 87 × 6
   scenario polyID      SWSDLID SWSDLName      StateID                  geometry
 * <chr>    <chr>       <chr>   <chr>          <chr>          <MULTIPOLYGON [°]>
 1 base     r602ydft049 SS16    Lachlan        NSW     (((146.4428 -32.33613, 1…
 2 base     r6367k2uy6m SS20    Macquarie–Cas… NSW     (((147.4064 -30.14296, 1…
 3 base     r6d2dwp48wm SS21    Namoi          NSW     (((148.3669 -29.78047, 1…
 4 down4    r602ydft049 SS16    Lachlan        NSW     (((146.4428 -32.33613, 1…
 5 down4    r6367k2uy6m SS20    Macquarie–Cas… NSW     (((147.4064 -30.14296, 1…
 6 down4    r6d2dwp48wm SS21    Namoi          NSW     (((148.3669 -29.78047, 1…
 7 up4      r602ydft049 SS16    Lachlan        NSW     (((146.4428 -32.33613, 1…
 8 up4      r6367k2uy6m SS20    Macquarie–Cas… NSW     (((147.4064 -30.14296, 1…
 9 up4      r6d2dwp48wm SS21    Namoi          NSW     (((148.3669 -29.78047, 1…
10 base     r1gkz59ex7z SS10    South Austral… SA      (((140.9917 -32.26605, 1…
# … with 77 more rows
…
doublelam <- spatial_aggregate(dat = simpleThemeAgg, 
                             to_geo = sdl_units,
                             groupers = c('scenario', 'env_obj'),
                             aggCols = 'ewr_achieved',
                             funlist = simplelamfuns,
                             keepAllPolys = TRUE,
                             failmissing = FALSE)
doublelam

Simple feature collection with 3939 features and 6 fields
Geometry type: MULTIPOLYGON
Dimension:     XY
Bounding box:  xmin: 138.5685 ymin: -37.68199 xmax: 152.4821 ymax: -24.5893
Geodetic CRS:  GDA94
# A tibble: 3,939 × 7
   scenario env_obj polyID     SWSDLID SWSDL…¹ StateID                  geometry
 * <chr>    <chr>   <chr>      <chr>   <chr>   <chr>          <MULTIPOLYGON [°]>
 1 base     EF1     r602ydft0… SS16    Lachlan NSW     (((146.4428 -32.33613, 1…
 2 base     EF1     r6367k2uy… SS20    Macqua… NSW     (((147.4064 -30.14296, 1…
 3 base     EF1     r6d2dwp48… SS21    Namoi   NSW     (((148.3669 -29.78047, 1…
 4 base     EF2     r602ydft0… SS16    Lachlan NSW     (((146.4428 -32.33613, 1…
 5 base     EF2     r6367k2uy… SS20    Macqua… NSW     (((147.4064 -30.14296, 1…
 6 base     EF2     r6d2dwp48… SS21    Namoi   NSW     (((148.3669 -29.78047, 1…
 7 base     EF3     r602ydft0… SS16    Lachlan NSW     (((146.4428 -32.33613, 1…
 8 base     EF3     r6367k2uy… SS20    Macqua… NSW     (((147.4064 -30.14296, 1…
 9 base     EF3     r6d2dwp48… SS21    Namoi   NSW     (((148.3669 -29.78047, 1…
10 base     EF3a    r602ydft0… SS16    Lachlan NSW     (((146.4428 -32.33613, 1…
# … with 3,929 more rows, and abbreviated variable name ¹​SWSDLName
…
triplevec

Simple feature collection with 3939 features and 6 fields
Geometry type: MULTIPOLYGON
Dimension:     XY
Bounding box:  xmin: 138.5685 ymin: -37.68199 xmax: 152.4821 ymax: -24.5893
Geodetic CRS:  GDA94
# A tibble: 3,939 × 7
   scenario env_obj polyID     SWSDLID SWSDL…¹ StateID                  geometry
 * <chr>    <chr>   <chr>      <chr>   <chr>   <chr>          <MULTIPOLYGON [°]>
 1 base     EF1     r602ydft0… SS16    Lachlan NSW     (((146.4428 -32.33613, 1…
 2 base     EF1     r6367k2uy… SS20    Macqua… NSW     (((147.4064 -30.14296, 1…
 3 base     EF1     r6d2dwp48… SS21    Namoi   NSW     (((148.3669 -29.78047, 1…
 4 base     EF2     r602ydft0… SS16    Lachlan NSW     (((146.4428 -32.33613, 1…
 5 base     EF2     r6367k2uy… SS20    Macqua… NSW     (((147.4064 -30.14296, 1…
 6 base     EF2     r6d2dwp48… SS21    Namoi   NSW     (((148.3669 -29.78047, 1…
 7 base     EF3     r602ydft0… SS16    Lachlan NSW     (((146.4428 -32.33613, 1…
 8 base     EF3     r6367k2uy… SS20    Macqua… NSW     (((147.4064 -30.14296, 1…
 9 base     EF3     r6d2dwp48… SS21    Namoi   NSW     (((148.3669 -29.78047, 1…
10 base     EF3a    r602ydft0… SS16    Lachlan NSW     (((146.4428 -32.33613, 1…
# … with 3,929 more rows, and abbreviated variable name ¹​SWSDLName
…
vecnamedfun

Simple feature collection with 3939 features and 6 fields
Geometry type: MULTIPOLYGON
Dimension:     XY
Bounding box:  xmin: 138.5685 ymin: -37.68199 xmax: 152.4821 ymax: -24.5893
Geodetic CRS:  GDA94
# A tibble: 3,939 × 7
   scenario env_obj polyID     SWSDLID SWSDL…¹ StateID                  geometry
 * <chr>    <chr>   <chr>      <chr>   <chr>   <chr>          <MULTIPOLYGON [°]>
 1 base     EF1     r602ydft0… SS16    Lachlan NSW     (((146.4428 -32.33613, 1…
 2 base     EF1     r6367k2uy… SS20    Macqua… NSW     (((147.4064 -30.14296, 1…
 3 base     EF1     r6d2dwp48… SS21    Namoi   NSW     (((148.3669 -29.78047, 1…
 4 base     EF2     r602ydft0… SS16    Lachlan NSW     (((146.4428 -32.33613, 1…
 5 base     EF2     r6367k2uy… SS20    Macqua… NSW     (((147.4064 -30.14296, 1…
 6 base     EF2     r6d2dwp48… SS21    Namoi   NSW     (((148.3669 -29.78047, 1…
 7 base     EF3     r602ydft0… SS16    Lachlan NSW     (((146.4428 -32.33613, 1…
 8 base     EF3     r6367k2uy… SS20    Macqua… NSW     (((147.4064 -30.14296, 1…
 9 base     EF3     r6d2dwp48… SS21    Namoi   NSW     (((148.3669 -29.78047, 1…
10 base     EF3a    r602ydft0… SS16    Lachlan NSW     (((146.4428 -32.33613, 1…
# … with 3,929 more rows, and abbreviated variable name ¹​SWSDLName
…
